…
    Code
      auto_expand(data, new_seqx(c))
    Output
      # A tibble: 5 x 5
            a     b c     d     e         
        <dbl> <int> <fct> <lgl> <date>    
      1   3.5     5 a     FALSE 2023-09-29
      2   3.5     5 b     FALSE 2023-09-29
      3   3.5     5 c     FALSE 2023-09-29
      4   3.5     5 d     FALSE 2023-09-29
      5   3.5     5 e     FALSE 2023-09-29
    Code
      auto_expand(data, new_seqx(a))
    Output
      # A tibble: 30 x 5
             a     b c     d     e         
         <dbl> <int> <fct> <lgl> <date>    
       1  1.5      5 a     FALSE 2023-09-29
       2  1.64     5 a     FALSE 2023-09-29
       3  1.78     5 a     FALSE 2023-09-29
       4  1.91     5 a     FALSE 2023-09-29
       5  2.05     5 a     FALSE 2023-09-29
       6  2.19     5 a     FALSE 2023-09-29
       7  2.33     5 a     FALSE 2023-09-29
       8  2.47     5 a     FALSE 2023-09-29
       9  2.60     5 a     FALSE 2023-09-29
      10  2.74     5 a     FALSE 2023-09-29
      # i 20 more rows
…
    Code
      auto_expand(data, new_seqx(a, length_out = 12, obs_only = TRUE))
    Output
      # A tibble: 5 x 5
            a     b c     d     e         
        <dbl> <int> <fct> <lgl> <date>    
      1   1.5     5 a     FALSE 2023-09-29
      2   2.5     5 a     FALSE 2023-09-29
      3   3.5     5 a     FALSE 2023-09-29
      4   4.5     5 a     FALSE 2023-09-29
      5   5.5     5 a     FALSE 2023-09-29
    Code
      auto_expand(data, new_seqx(a, length_out = 12), b)
    Output
      # A tibble: 60 x 5
             a     b c     d     e         
         <dbl> <int> <fct> <lgl> <date>    
       1  1.5      3 a     FALSE 2023-09-29
       2  1.5      4 a     FALSE 2023-09-29
       3  1.5      5 a     FALSE 2023-09-29
       4  1.5      6 a     FALSE 2023-09-29
       5  1.5      7 a     FALSE 2023-09-29
       6  1.86     3 a     FALSE 2023-09-29
       7  1.86     4 a     FALSE 2023-09-29
       8  1.86     5 a     FALSE 2023-09-29
       9  1.86     6 a     FALSE 2023-09-29
      10  1.86     7 a     FALSE 2023-09-29
      # i 50 more rows
    Code
      auto_expand(data, b, new_seqx(a, length_out = 12))
    Output
      # A tibble: 60 x 5
             a     b c     d     e         
         <dbl> <int> <fct> <lgl> <date>    
       1  1.5      3 a     FALSE 2023-09-29
       2  1.86     3 a     FALSE 2023-09-29
       3  2.23     3 a     FALSE 2023-09-29
       4  2.59     3 a     FALSE 2023-09-29
       5  2.95     3 a     FALSE 2023-09-29
       6  3.32     3 a     FALSE 2023-09-29
       7  3.68     3 a     FALSE 2023-09-29
       8  4.05     3 a     FALSE 2023-09-29
       9  4.41     3 a     FALSE 2023-09-29
      10  4.77     3 a     FALSE 2023-09-29
      # i 50 more rows
…
