…
      new_data(datasets::chickwts, "feed")
    Output
      # A tibble: 6 x 2
        weight feed     
         <dbl> <fct>    
      1   261. casein   
      2   261. horsebean
      3   261. linseed  
      4   261. meatmeal 
      5   261. soybean  
      6   261. sunflower
    Code
      new_data(datasets::chickwts, "weight")
    Output
      # A tibble: 30 x 2
         weight feed  
          <dbl> <fct> 
       1   108  casein
       2   119. casein
       3   130. casein
       4   141. casein
       5   151. casein
       6   162. casein
       7   173. casein
       8   184. casein
       9   195. casein
      10   206. casein
      # i 20 more rows
    Code
      new_data(datasets::chickwts, c("weight", "feed"))
    Output
      # A tibble: 180 x 2
         weight feed  
          <dbl> <fct> 
       1   108  casein
       2   119. casein
       3   130. casein
       4   141. casein
       5   151. casein
       6   162. casein
       7   173. casein
       8   184. casein
       9   195. casein
      10   206. casein
      # i 170 more rows
…
        dlogical dinteger dnumeric dfactor ddate      dhms    
        <lgl>       <int>    <dbl> <fct>   <date>     <time>  
      1 FALSE           5      5.6 1       2000-01-06 10:00:05
    Code
      new_data(data, "dlogical")
    Output
      # A tibble: 2 x 6
        dlogical dinteger dnumeric dfactor ddate      dhms    
        <lgl>       <int>    <dbl> <fct>   <date>     <time>  
      1 FALSE           5      5.6 1       2000-01-06 10:00:05
      2 TRUE            5      5.6 1       2000-01-06 10:00:05
    Code
      new_data(data, "dnumeric")
    Output
      # A tibble: 30 x 6
         dlogical dinteger dnumeric dfactor ddate      dhms    
         <lgl>       <int>    <dbl> <fct>   <date>     <time>  
       1 FALSE           5     1.1  1       2000-01-06 10:00:05
       2 FALSE           5     1.41 1       2000-01-06 10:00:05
       3 FALSE           5     1.72 1       2000-01-06 10:00:05
       4 FALSE           5     2.03 1       2000-01-06 10:00:05
       5 FALSE           5     2.34 1       2000-01-06 10:00:05
       6 FALSE           5     2.65 1       2000-01-06 10:00:05
       7 FALSE           5     2.96 1       2000-01-06 10:00:05
       8 FALSE           5     3.27 1       2000-01-06 10:00:05
       9 FALSE           5     3.58 1       2000-01-06 10:00:05
      10 FALSE           5     3.89 1       2000-01-06 10:00:05
      # i 20 more rows
    Code
      new_data(data, c("dnumeric", "dinteger"))
    Output
      # A tibble: 300 x 6
         dlogical dinteger dnumeric dfactor ddate      dhms    
         <lgl>       <int>    <dbl> <fct>   <date>     <time>  
       1 FALSE           1      1.1 1       2000-01-06 10:00:05
       2 FALSE           2      1.1 1       2000-01-06 10:00:05
       3 FALSE           3      1.1 1       2000-01-06 10:00:05
       4 FALSE           4      1.1 1       2000-01-06 10:00:05
       5 FALSE           5      1.1 1       2000-01-06 10:00:05
       6 FALSE           6      1.1 1       2000-01-06 10:00:05
       7 FALSE           7      1.1 1       2000-01-06 10:00:05
       8 FALSE           8      1.1 1       2000-01-06 10:00:05
       9 FALSE           9      1.1 1       2000-01-06 10:00:05
      10 FALSE          10      1.1 1       2000-01-06 10:00:05
      # i 290 more rows
    Code
      new_data(data, c("dfactor", "dinteger"), length_out = 5)
    Output
      # A tibble: 25 x 6
         dlogical dinteger dnumeric dfactor ddate      dhms    
         <lgl>       <int>    <dbl> <fct>   <date>     <time>  
       1 FALSE           1      5.6 1       2000-01-06 10:00:05
       2 FALSE           3      5.6 1       2000-01-06 10:00:05
       3 FALSE           5      5.6 1       2000-01-06 10:00:05
       4 FALSE           7      5.6 1       2000-01-06 10:00:05
       5 FALSE          10      5.6 1       2000-01-06 10:00:05
       6 FALSE           1      5.6 2       2000-01-06 10:00:05
       7 FALSE           3      5.6 2       2000-01-06 10:00:05
       8 FALSE           5      5.6 2       2000-01-06 10:00:05
       9 FALSE           7      5.6 2       2000-01-06 10:00:05
      10 FALSE          10      5.6 2       2000-01-06 10:00:05
      # i 15 more rows
…
