…
      11 2     3     2          1
      12 2     3     2          2
      13 4     1     1          1
      14 4     1     1          2
      15 4     1     2          1
      16 4     1     2          2
      17 4     3     1          1
      18 4     3     1          2
      19 4     3     2          1
      20 4     3     2          2
    Code
      new_data(data, c("Fac1", "Fac2", "Fac3", "Random"), obs_only = list("Fac1",
        "Fac2", "Fac3", "Random"))
    Output
      # A tibble: 24 x 4
         Fac1  Fac2  Fac3  Random
         <fct> <fct> <fct>  <int>
       1 2     1     1          1
       2 1     1     1          1
       3 2     3     1          1
       4 4     1     1          1
       5 1     1     2          1
       6 1     3     1          1
       7 4     3     1          1
       8 1     3     2          1
       9 2     1     2          1
      10 4     1     2          1
      # i 14 more rows
