…
      # A tibble: 1 x 5
            a     b c     d     e         
        <dbl> <int> <fct> <lgl> <date>    
      1   3.5     5 a     FALSE 2023-09-29
    Code
      xnew_data(as.data.frame(data))
    Output
      # A tibble: 1 x 5
            a     b c     d     e         
        <dbl> <int> <fct> <lgl> <date>    
      1   3.5     5 a     FALSE 2023-09-29
    Code
      xnew_data(data, a)
    Output
      # A tibble: 30 x 5
             a     b c     d     e         
         <dbl> <int> <fct> <lgl> <date>    
       1  1.5      5 a     FALSE 2023-09-29
       2  1.64     5 a     FALSE 2023-09-29
       3  1.78     5 a     FALSE 2023-09-29
       4  1.91     5 a     FALSE 2023-09-29
       5  2.05     5 a     FALSE 2023-09-29
       6  2.19     5 a     FALSE 2023-09-29
       7  2.33     5 a     FALSE 2023-09-29
       8  2.47     5 a     FALSE 2023-09-29
       9  2.60     5 a     FALSE 2023-09-29
      10  2.74     5 a     FALSE 2023-09-29
      # i 20 more rows
…
    Code
      xnew_data(data, xnew_seq(c))
    Output
      # A tibble: 5 x 5
            a     b c     d     e         
        <dbl> <int> <fct> <lgl> <date>    
      1   3.5     5 a     FALSE 2023-09-29
      2   3.5     5 b     FALSE 2023-09-29
      3   3.5     5 c     FALSE 2023-09-29
      4   3.5     5 d     FALSE 2023-09-29
      5   3.5     5 e     FALSE 2023-09-29
    Code
      xnew_data(data, xnew_seq(a))
    Output
      # A tibble: 30 x 5
             a     b c     d     e         
         <dbl> <int> <fct> <lgl> <date>    
       1  1.5      5 a     FALSE 2023-09-29
       2  1.64     5 a     FALSE 2023-09-29
       3  1.78     5 a     FALSE 2023-09-29
       4  1.91     5 a     FALSE 2023-09-29
       5  2.05     5 a     FALSE 2023-09-29
       6  2.19     5 a     FALSE 2023-09-29
       7  2.33     5 a     FALSE 2023-09-29
       8  2.47     5 a     FALSE 2023-09-29
       9  2.60     5 a     FALSE 2023-09-29
      10  2.74     5 a     FALSE 2023-09-29
      # i 20 more rows
…
    Code
      xnew_data(data, xnew_seq(a, length_out = 12, obs_only = TRUE))
    Output
      # A tibble: 5 x 5
            a     b c     d     e         
        <dbl> <int> <fct> <lgl> <date>    
      1   1.5     5 a     FALSE 2023-09-29
      2   2.5     5 a     FALSE 2023-09-29
      3   3.5     5 a     FALSE 2023-09-29
      4   4.5     5 a     FALSE 2023-09-29
      5   5.5     5 a     FALSE 2023-09-29
    Code
      xnew_data(data, xnew_seq(a, length_out = 12), b)
    Output
      # A tibble: 60 x 5
             a     b c     d     e         
         <dbl> <int> <fct> <lgl> <date>    
       1  1.5      3 a     FALSE 2023-09-29
       2  1.5      4 a     FALSE 2023-09-29
       3  1.5      5 a     FALSE 2023-09-29
       4  1.5      6 a     FALSE 2023-09-29
       5  1.5      7 a     FALSE 2023-09-29
       6  1.86     3 a     FALSE 2023-09-29
       7  1.86     4 a     FALSE 2023-09-29
       8  1.86     5 a     FALSE 2023-09-29
       9  1.86     6 a     FALSE 2023-09-29
      10  1.86     7 a     FALSE 2023-09-29
      # i 50 more rows
    Code
      xnew_data(data, b, xnew_seq(a, length_out = 12))
    Output
      # A tibble: 60 x 5
             a     b c     d     e         
         <dbl> <int> <fct> <lgl> <date>    
       1  1.5      3 a     FALSE 2023-09-29
       2  1.86     3 a     FALSE 2023-09-29
       3  2.23     3 a     FALSE 2023-09-29
       4  2.59     3 a     FALSE 2023-09-29
       5  2.95     3 a     FALSE 2023-09-29
       6  3.32     3 a     FALSE 2023-09-29
       7  3.68     3 a     FALSE 2023-09-29
       8  4.05     3 a     FALSE 2023-09-29
       9  4.41     3 a     FALSE 2023-09-29
      10  4.77     3 a     FALSE 2023-09-29
      # i 50 more rows
…
# xnew_data factor with 100 levels

    Code
      data
    Output
      # A tibble: 100 x 2
         fct     dbl
         <fct> <dbl>
       1 1         1
       2 2         2
       3 3         3
       4 4         4
       5 5         5
       6 6         6
       7 7         7
       8 8         8
       9 9         9
      10 10       10
      # i 90 more rows
    Code
      xnew_data(data)
    Output
      # A tibble: 1 x 2
        fct     dbl
        <fct> <dbl>
      1 1      50.5
    Code
      xnew_data(data, fct)
    Output
      # A tibble: 100 x 2
         fct     dbl
         <fct> <dbl>
       1 1      50.5
       2 2      50.5
       3 3      50.5
       4 4      50.5
       5 5      50.5
       6 6      50.5
       7 7      50.5
       8 8      50.5
       9 9      50.5
      10 10     50.5
      # i 90 more rows
    Code
      xnew_data(data, dbl)
    Output
      # A tibble: 30 x 2
         fct     dbl
         <fct> <dbl>
       1 1      1   
       2 1      4.41
       3 1      7.83
       4 1     11.2 
       5 1     14.7 
       6 1     18.1 
       7 1     21.5 
       8 1     24.9 
       9 1     28.3 
      10 1     31.7 
      # i 20 more rows
    Code
      xnew_data(data, dbl, fct)
    Output
      # A tibble: 3,000 x 2
         fct     dbl
         <fct> <dbl>
       1 1         1
       2 2         1
       3 3         1
       4 4         1
       5 5         1
       6 6         1
       7 7         1
       8 8         1
       9 9         1
      10 10        1
      # i 2,990 more rows
    Code
      xnew_data(data, fct, dbl)
    Output
      # A tibble: 3,000 x 2
         fct     dbl
         <fct> <dbl>
       1 1      1   
       2 1      4.41
       3 1      7.83
       4 1     11.2 
       5 1     14.7 
       6 1     18.1 
       7 1     21.5 
       8 1     24.9 
       9 1     28.3 
      10 1     31.7 
      # i 2,990 more rows
    Code
      xnew_data(data, fct, dbl, .length_out = 30)
    Output
      # A tibble: 900 x 2
         fct     dbl
         <fct> <dbl>
       1 1      1   
       2 1      4.41
       3 1      7.83
       4 1     11.2 
       5 1     14.7 
       6 1     18.1 
       7 1     21.5 
       8 1     24.9 
       9 1     28.3 
      10 1     31.7 
      # i 890 more rows
    Code
      xnew_data(data, fct, dbl, .length_out = 29)
    Output
      # A tibble: 841 x 2
         fct     dbl
         <fct> <dbl>
       1 1      1   
       2 1      4.54
       3 1      8.07
       4 1     11.6 
       5 1     15.1 
       6 1     18.7 
       7 1     22.2 
       8 1     25.8 
       9 1     29.3 
      10 1     32.8 
      # i 831 more rows
