Generate New Data — new_data • newdata
…
    Examples

new_data(old_data, "int")
#> # A tibble: 6 × 9
#>   lgl     int   dbl chr   fct     ord      dte        dtt                 hms   
#>   <lgl> <int> <dbl> <chr> <fct>   <ord>    <date>     <dttm>              <time>
#> 1 FALSE     1  4.57 most  not obs a rarity 1970-01-04 1969-12-31 16:00:03 00'03"
#> 2 FALSE     2  4.57 most  not obs a rarity 1970-01-04 1969-12-31 16:00:03 00'03"
#> 3 FALSE     3  4.57 most  not obs a rarity 1970-01-04 1969-12-31 16:00:03 00'03"
#> 4 FALSE     4  4.57 most  not obs a rarity 1970-01-04 1969-12-31 16:00:03 00'03"
#> 5 FALSE     5  4.57 most  not obs a rarity 1970-01-04 1969-12-31 16:00:03 00'03"
#> 6 FALSE     6  4.57 most  not obs a rarity 1970-01-04 1969-12-31 16:00:03 00'03"
new_data(old_data, "dbl")
#> # A tibble: 30 × 9
#>    lgl     int   dbl chr   fct     ord     dte        dtt                 hms   
#>    <lgl> <int> <dbl> <chr> <fct>   <ord>   <date>     <dttm>              <time>
#>  1 FALSE     3  1    most  not obs a rari… 1970-01-04 1969-12-31 16:00:03 00'03"
#>  2 FALSE     3  1.25 most  not obs a rari… 1970-01-04 1969-12-31 16:00:03 00'03"
#>  3 FALSE     3  1.50 most  not obs a rari… 1970-01-04 1969-12-31 16:00:03 00'03"
#>  4 FALSE     3  1.74 most  not obs a rari… 1970-01-04 1969-12-31 16:00:03 00'03"
#>  5 FALSE     3  1.99 most  not obs a rari… 1970-01-04 1969-12-31 16:00:03 00'03"
#>  6 FALSE     3  2.24 most  not obs a rari… 1970-01-04 1969-12-31 16:00:03 00'03"
#>  7 FALSE     3  2.49 most  not obs a rari… 1970-01-04 1969-12-31 16:00:03 00'03"
#>  8 FALSE     3  2.74 most  not obs a rari… 1970-01-04 1969-12-31 16:00:03 00'03"
#>  9 FALSE     3  2.99 most  not obs a rari… 1970-01-04 1969-12-31 16:00:03 00'03"
#> 10 FALSE     3  3.23 most  not obs a rari… 1970-01-04 1969-12-31 16:00:03 00'03"
#> # ℹ 20 more rows
new_data(old_data, c("int", "dbl"))
#> # A tibble: 180 × 9
#>    lgl     int   dbl chr   fct     ord     dte        dtt                 hms   
#>    <lgl> <int> <dbl> <chr> <fct>   <ord>   <date>     <dttm>              <time>
#>  1 FALSE     1  1    most  not obs a rari… 1970-01-04 1969-12-31 16:00:03 00'03"
#>  2 FALSE     1  1.25 most  not obs a rari… 1970-01-04 1969-12-31 16:00:03 00'03"
#>  3 FALSE     1  1.50 most  not obs a rari… 1970-01-04 1969-12-31 16:00:03 00'03"
#>  4 FALSE     1  1.74 most  not obs a rari… 1970-01-04 1969-12-31 16:00:03 00'03"
#>  5 FALSE     1  1.99 most  not obs a rari… 1970-01-04 1969-12-31 16:00:03 00'03"
#>  6 FALSE     1  2.24 most  not obs a rari… 1970-01-04 1969-12-31 16:00:03 00'03"
#>  7 FALSE     1  2.49 most  not obs a rari… 1970-01-04 1969-12-31 16:00:03 00'03"
#>  8 FALSE     1  2.74 most  not obs a rari… 1970-01-04 1969-12-31 16:00:03 00'03"
#>  9 FALSE     1  2.99 most  not obs a rari… 1970-01-04 1969-12-31 16:00:03 00'03"
#> 10 FALSE     1  3.23 most  not obs a rari… 1970-01-04 1969-12-31 16:00:03 00'03"
#> # ℹ 170 more rows
…
